…
##question 3
train_size <- .7*nrow(home_data)

set.seed(500)

train_index <- sample(x = 1:nrow(home_data), size = train_size, replace = F)

train_set <- home_data[train_index, ]
valid_set <- home_data[-train_index, ]

train_set

## # A tibble: 4,057 x 16
##    TOTAL.VALUE   TAX `LOT SQFT` YR.BUILT GROSS.AREA LIVING.AREA FLOORS ROOMS
##          <dbl> <dbl>      <dbl>    <dbl>      <dbl>       <dbl> <fct>  <dbl>
##  1        399.  5015       7188     1953       2568        1440 2          7
##  2        444   5585       5150     1917       3297        2061 2          7
##  3        421   5296       5000     1924       3798        1989 1.5        8
##  4        279.  3504       4655     1929       3048        1327 1          8
##  5        445.  5594      10900     1955       2665        1470 2          7
##  6        298.  3750       6402     1950       2736        1210 1          6
##  7        444.  5581       6400     1957       2562        1638 2          9
##  8        470.  5913       5000     1900       3061        1836 2          7
##  9        310.  3901       4417     1929       3160        1383 1          8
## 10        298.  3755       5350     1951       1908        1035 1.5        5
## # ... with 4,047 more rows, and 8 more variables: BEDROOMS <dbl>,
## #   FULL BATH <dbl>, HALF BATH <dbl>, KITCHEN <dbl>, FIREPLACE <dbl>,
## #   REMODEL <chr>, RATING <dbl>, AGE <dbl>

valid_set

## # A tibble: 1,739 x 16
##    TOTAL.VALUE   TAX `LOT SQFT` YR.BUILT GROSS.AREA LIVING.AREA FLOORS ROOMS
##          <dbl> <dbl>      <dbl>    <dbl>      <dbl>       <dbl> <fct>  <dbl>
##  1        298.  3751       5000     1940       2129         864 1          7
##  2        313.  3938       6949     1880       2612        1438 1.5        7
##  3        346.  4355       5000     1910       2655        1541 2          7
##  4        247.  3111       4012     1896       1994        1048 1.5        6
##  5        321.  4035      13275     1910       1516         808 1.5        6
##  6        294.  3693       4289     1910       2286        1436 2          7
##  7        240.  3015       5450     1963       2112         960 1          5
##  8        318.  4005       4717     1915       3222        1803 1          7
##  9        350.  4400       7242     1910       2496        1460 2          7
## 10        346.  4355      11250     1900       2830        1391 1.5        6
## # ... with 1,729 more rows, and 8 more variables: BEDROOMS <dbl>,
## #   FULL BATH <dbl>, HALF BATH <dbl>, KITCHEN <dbl>, FIREPLACE <dbl>,
## #   REMODEL <chr>, RATING <dbl>, AGE <dbl>
…
